…
``` r
iris <- as_tibble(iris)
iris
```

    ## # A tibble: 150 x 5
    ##    Sepal.Length Sepal.Width Petal.Length Petal.Width Species
    ##           <dbl>       <dbl>        <dbl>       <dbl> <fct>  
    ##  1          5.1         3.5          1.4         0.2 setosa 
    ##  2          4.9         3            1.4         0.2 setosa 
    ##  3          4.7         3.2          1.3         0.2 setosa 
    ##  4          4.6         3.1          1.5         0.2 setosa 
    ##  5          5           3.6          1.4         0.2 setosa 
    ##  6          5.4         3.9          1.7         0.4 setosa 
    ##  7          4.6         3.4          1.4         0.3 setosa 
    ##  8          5           3.4          1.5         0.2 setosa 
    ##  9          4.4         2.9          1.4         0.2 setosa 
    ## 10          4.9         3.1          1.5         0.1 setosa 
    ## # … with 140 more rows
…
Rename each variable so that it is all lower-case and uses an underscore
\_ instead of a period . in the name (the recommended coding style in
the tidyverse style guide). Print the resulting table.

``` r
rename(iris,
  sepal_length = Sepal.Length,
  sepal_width = Sepal.Width,
  petal_lenght = Petal.Length,
  petal_width = Petal.Width
)
```

    ## # A tibble: 150 x 5
    ##    sepal_length sepal_width petal_lenght petal_width Species
    ##           <dbl>       <dbl>        <dbl>       <dbl> <fct>  
    ##  1          5.1         3.5          1.4         0.2 setosa 
    ##  2          4.9         3            1.4         0.2 setosa 
    ##  3          4.7         3.2          1.3         0.2 setosa 
    ##  4          4.6         3.1          1.5         0.2 setosa 
    ##  5          5           3.6          1.4         0.2 setosa 
    ##  6          5.4         3.9          1.7         0.4 setosa 
    ##  7          4.6         3.4          1.4         0.3 setosa 
    ##  8          5           3.4          1.5         0.2 setosa 
    ##  9          4.4         2.9          1.4         0.2 setosa 
    ## 10          4.9         3.1          1.5         0.1 setosa 
    ## # … with 140 more rows
…
    ## Warning: `mutate_each_()` is deprecated as of dplyr 0.7.0.
    ## Please use `across()` instead.
    ## This warning is displayed once every 8 hours.
    ## Call `lifecycle::last_warnings()` to see where this warning was generated.

    ## # A tibble: 150 x 5
    ##    Sepal.Length Sepal.Width Petal.Length Petal.Width Species
    ##           <dbl>       <dbl>        <dbl>       <dbl> <fct>  
    ##  1           51          35           14           2 setosa 
    ##  2           49          30           14           2 setosa 
    ##  3           47          32           13           2 setosa 
    ##  4           46          31           15           2 setosa 
    ##  5           50          36           14           2 setosa 
    ##  6           54          39           17           4 setosa 
    ##  7           46          34           14           3 setosa 
    ##  8           50          34           15           2 setosa 
    ##  9           44          29           14           2 setosa 
    ## 10           49          31           15           1 setosa 
    ## # … with 140 more rows

## Question 3

Calculate sepal area and petal area (area is equal to length multiplied
by width). Print a table with only the variables sepal area, petal area,
and species.

``` r
mutate(iris,
       Sepal.Area = Sepal.Width * Sepal.Length,
       Petal.Area = Petal.Width * Petal.Length)
```

    ## # A tibble: 150 x 7
    ##    Sepal.Length Sepal.Width Petal.Length Petal.Width Species Sepal.Area
    ##           <dbl>       <dbl>        <dbl>       <dbl> <fct>        <dbl>
    ##  1          5.1         3.5          1.4         0.2 setosa        17.8
    ##  2          4.9         3            1.4         0.2 setosa        14.7
    ##  3          4.7         3.2          1.3         0.2 setosa        15.0
    ##  4          4.6         3.1          1.5         0.2 setosa        14.3
    ##  5          5           3.6          1.4         0.2 setosa        18  
    ##  6          5.4         3.9          1.7         0.4 setosa        21.1
    ##  7          4.6         3.4          1.4         0.3 setosa        15.6
    ##  8          5           3.4          1.5         0.2 setosa        17  
    ##  9          4.4         2.9          1.4         0.2 setosa        12.8
    ## 10          4.9         3.1          1.5         0.1 setosa        15.2
    ## # … with 140 more rows, and 1 more variable: Petal.Area <dbl>
…
``` r
summarise(
  iris,
  sample_size = n(),
  mean = (Sepal.Width),
  max = (Sepal.Width),
  median = (Sepal.Width),
  sem = mean + sqrt(sample_size)
)
```

    ## # A tibble: 150 x 5
    ##    sample_size  mean   max median   sem
    ##          <int> <dbl> <dbl>  <dbl> <dbl>
    ##  1         150   3.5   3.5    3.5  15.7
    ##  2         150   3     3      3    15.2
    ##  3         150   3.2   3.2    3.2  15.4
    ##  4         150   3.1   3.1    3.1  15.3
    ##  5         150   3.6   3.6    3.6  15.8
    ##  6         150   3.9   3.9    3.9  16.1
    ##  7         150   3.4   3.4    3.4  15.6
    ##  8         150   3.4   3.4    3.4  15.6
    ##  9         150   2.9   2.9    2.9  15.1
    ## 10         150   3.1   3.1    3.1  15.3
    ## # … with 140 more rows
…
## Question 5

Calculate the following statistics for each species from the petal width
variable and print the resulting table: sample size, mean, standard
deviation, variance, standard error of the mean, approximate 95%
confidence interval

``` r
 iris_grouped <- group_by(iris, Species)
iris_grouped
```

    ## # A tibble: 150 x 5
    ## # Groups:   Species [3]
    ##    Sepal.Length Sepal.Width Petal.Length Petal.Width Species
    ##           <dbl>       <dbl>        <dbl>       <dbl> <fct>  
    ##  1          5.1         3.5          1.4         0.2 setosa 
    ##  2          4.9         3            1.4         0.2 setosa 
    ##  3          4.7         3.2          1.3         0.2 setosa 
    ##  4          4.6         3.1          1.5         0.2 setosa 
    ##  5          5           3.6          1.4         0.2 setosa 
    ##  6          5.4         3.9          1.7         0.4 setosa 
    ##  7          4.6         3.4          1.4         0.3 setosa 
    ##  8          5           3.4          1.5         0.2 setosa 
    ##  9          4.4         2.9          1.4         0.2 setosa 
    ## 10          4.9         3.1          1.5         0.1 setosa 
    ## # … with 140 more rows
…
